{
  "January": [
    {
      "id": 8,
      "card_number": "5602255897698404",
      "card_type": "china-unionpay",
      "issue_date": "1/1/2021",
      "salt": "YIMQMW",
      "phone": "228-796-2347",
      "CVV": 583,
      "status": "Invalid"
    },
    {
      "id": 4,
      "card_number": "374283660946674",
      "card_type": "americanexpress",
      "issue_date": "1/13/2021",
      "salt": "n25JXsxzYr",
      "phone": "599-331-8099",
      "CVV": 474,
      "status": "Invalid"
    }
  ],
  "March": [
    {
      "id": 5,
      "card_number": "67090853951061268",
      "card_type": "laser",
      "issue_date": "3/18/2021",
      "salt": "Yy5rjSJw",
      "phone": "850-191-9906",
      "CVV": 445,
      "status": "Valid"
    }
  ],
  "April": [
    {
      "id": 9,
      "card_number": "3534352248361143",
      "card_type": "jcb",
      "issue_date": "4/28/2021",
      "salt": "zj8NhPuUe4I",
      "phone": "228-796-2347",
      "CVV": 403,
      "status": "Valid"
    }
  ],
  "May": [
    {
      "id": 3,
      "card_number": "5610480363247475108",
      "card_type": "china-unionpay",
      "issue_date": "5/7/2021",
      "salt": "jBQThr",
      "phone": "348-326-7873",
      "CVV": 945,
      "status": "Valid"
    },
    {
      "id": 1,
      "card_number": "5602221055053843723",
      "card_type": "china-unionpay",
      "issue_date": "5/25/2021",
      "salt": "x6ZHoS0t9vIU",
      "phone": "339-555-5239",
      "CVV": 267,
      "status": "Valid"
    }
  ],
  "June": [
    {
      "id": 6,
      "card_number": "560221984712769463",
      "card_type": "china-unionpay",
      "issue_date": "6/29/2021",
      "salt": "VyyrJbUhV60",
      "phone": "683-417-5044",
      "CVV": 1008,
      "status": "Valid"
    }
  ],
  "October": [
    {
      "id": 10,
      "card_number": "4026933464803521",
      "card_type": "visa-electron",
      "issue_date": "10/1/2021",
      "salt": "cAsGiHMFTPU",
      "phone": "372-887-5974",
      "CVV": 887,
      "status": "Valid"
    }
  ],
  "November": [
    {
      "id": 7,
      "card_number": "3589433562357794",
      "card_type": "jcb",
      "issue_date": "11/16/2021",
      "salt": "9M3zon",
      "phone": "634-798-7829",
      "CVV": 1089,
      "status": "Valid"
    }
  ],
  "December": [
    {
      "id": 2,
      "card_number": "3547469136425635",
      "card_type": "jcb",
      "issue_date": "12/18/2021",
      "salt": "FVOUIk",
      "phone": "847-313-1289",
      "CVV": 946,
      "status": "Valid"
    }
  ]
}
